[
    {
        "id": 1,
        "created_at": "2019-11-24T19:38:00.059104",
        "symbol": "CAD",
        "last_update": "2019-11-22",
        "name": "Canadian Dollar",
        "rate": 1.327455236
    },
    {
        "id": 2,
        "created_at": "2019-11-24T19:38:00.059119",
        "symbol": "HKD",
        "last_update": "2019-11-22",
        "name": "Hong Kong Dollar",
        "rate": 7.8246518358
    },
    {
        "id": 3,
        "created_at": "2019-11-24T19:38:00.059125",
        "symbol": "ISK",
        "last_update": "2019-11-22",
        "name": "Icelandic Króna",
        "rate": 123.259178875
    },
    {
        "id": 4,
        "created_at": "2019-11-24T19:38:00.059129",
        "symbol": "PHP",
        "last_update": "2019-11-22",
        "name": "Philippine Peso",
        "rate": 50.8545849159
    },
    {
        "id": 5,
        "created_at": "2019-11-24T19:38:00.059133",
        "symbol": "DKK",
        "last_update": "2019-11-22",
        "name": "Danish Krone",
        "rate": 6.7577319588
    },
    {
        "id": 6,
        "created_at": "2019-11-24T19:38:00.059140",
        "symbol": "HUF",
        "last_update": "2019-11-22",
        "name": "Hungarian Forint",
        "rate": 302.3060227889
    },
    {
        "id": 7,
        "created_at": "2019-11-24T19:38:00.059144",
        "symbol": "CZK",
        "last_update": "2019-11-22",
        "name": "Czech Republic Koruna",
        "rate": 23.0719840839
    },
    {
        "id": 8,
        "created_at": "2019-11-24T19:38:00.059149",
        "symbol": "GBP",
        "last_update": "2019-11-22",
        "name": "British Pound Sterling",
        "rate": 0.7775366251
    },
    {
        "id": 9,
        "created_at": "2019-11-24T19:38:00.059153",
        "symbol": "RON",
        "last_update": "2019-11-22",
        "name": "Romanian Leu",
        "rate": 4.3173268222
    },
    {
        "id": 10,
        "created_at": "2019-11-24T19:38:00.059157",
        "symbol": "SEK",
        "last_update": "2019-11-22",
        "name": "Swedish Krona",
        "rate": 9.6097847712
    },
    {
        "id": 11,
        "created_at": "2019-11-24T19:38:00.059161",
        "symbol": "IDR",
        "last_update": "2019-11-22",
        "name": "Indonesian Rupiah",
        "rate": 14084.997287032
    },
    {
        "id": 12,
        "created_at": "2019-11-24T19:38:00.059165",
        "symbol": "INR",
        "last_update": "2019-11-22",
        "name": "Indian Rupee",
        "rate": 71.6865617652
    },
    {
        "id": 13,
        "created_at": "2019-11-24T19:38:00.059169",
        "symbol": "BRL",
        "last_update": "2019-11-22",
        "name": "Brazilian Real",
        "rate": 4.188189546
    },
    {
        "id": 14,
        "created_at": "2019-11-24T19:38:00.059173",
        "symbol": "RUB",
        "last_update": "2019-11-22",
        "name": "Russian Ruble",
        "rate": 63.6969614759
    },
    {
        "id": 15,
        "created_at": "2019-11-24T19:38:00.059178",
        "symbol": "HRK",
        "last_update": "2019-11-22",
        "name": "Croatian Kuna",
        "rate": 6.7249954784
    },
    {
        "id": 16,
        "created_at": "2019-11-24T19:38:00.059182",
        "symbol": "JPY",
        "last_update": "2019-11-22",
        "name": "Japanese Yen",
        "rate": 108.545849159
    },
    {
        "id": 17,
        "created_at": "2019-11-24T19:38:00.059186",
        "symbol": "THB",
        "last_update": "2019-11-22",
        "name": "Thai Baht",
        "rate": 30.1953336951
    },
    {
        "id": 18,
        "created_at": "2019-11-24T19:38:00.059190",
        "symbol": "CHF",
        "last_update": "2019-11-22",
        "name": "Swiss Franc",
        "rate": 0.994212335
    },
    {
        "id": 19,
        "created_at": "2019-11-24T19:38:00.059194",
        "symbol": "EUR",
        "last_update": "2019-11-22",
        "name": "Euro",
        "rate": 0.9043226623
    },
    {
        "id": 20,
        "created_at": "2019-11-24T19:38:00.059197",
        "symbol": "MYR",
        "last_update": "2019-11-22",
        "name": "Malaysian Ringgit",
        "rate": 4.1710074154
    },
    {
        "id": 21,
        "created_at": "2019-11-24T19:38:00.059201",
        "symbol": "BGN",
        "last_update": "2019-11-22",
        "name": "Bulgarian Lev",
        "rate": 1.768674263
    },
    {
        "id": 22,
        "created_at": "2019-11-24T19:38:00.059207",
        "symbol": "TRY",
        "last_update": "2019-11-22",
        "name": "Turkish Lira",
        "rate": 5.7079942123
    },
    {
        "id": 23,
        "created_at": "2019-11-24T19:38:00.059211",
        "symbol": "CNY",
        "last_update": "2019-11-22",
        "name": "Chinese Yuan",
        "rate": 7.0387050099
    },
    {
        "id": 24,
        "created_at": "2019-11-24T19:38:00.059258",
        "symbol": "NOK",
        "last_update": "2019-11-22",
        "name": "Norwegian Krone",
        "rate": 9.1411647676
    },
    {
        "id": 25,
        "created_at": "2019-11-24T19:38:00.059263",
        "symbol": "NZD",
        "last_update": "2019-11-22",
        "name": "New Zealand Dollar",
        "rate": 1.5586905408
    },
    {
        "id": 26,
        "created_at": "2019-11-24T19:38:00.059267",
        "symbol": "ZAR",
        "last_update": "2019-11-22",
        "name": "South African Rand",
        "rate": 14.7149574968
    },
    {
        "id": 27,
        "created_at": "2019-11-24T19:38:00.059271",
        "symbol": "USD",
        "last_update": "2019-11-22",
        "name": "United States Dollar",
        "rate": 1.0
    },
    {
        "id": 28,
        "created_at": "2019-11-24T19:38:00.059275",
        "symbol": "MXN",
        "last_update": "2019-11-22",
        "name": "Mexican Peso",
        "rate": 19.3951890034
    },
    {
        "id": 29,
        "created_at": "2019-11-24T19:38:00.059282",
        "symbol": "SGD",
        "last_update": "2019-11-22",
        "name": "Singapore Dollar",
        "rate": 1.3629951167
    },
    {
        "id": 30,
        "created_at": "2019-11-24T19:38:00.059286",
        "symbol": "AUD",
        "last_update": "2019-11-22",
        "name": "Australian Dollar",
        "rate": 1.4728703201
    },
    {
        "id": 31,
        "created_at": "2019-11-24T19:38:00.059290",
        "symbol": "ILS",
        "last_update": "2019-11-22",
        "name": "Israeli New Sheqel",
        "rate": 3.4664496292
    },
    {
        "id": 32,
        "created_at": "2019-11-24T19:38:00.059294",
        "symbol": "KRW",
        "last_update": "2019-11-22",
        "name": "South Korean Won",
        "rate": 1178.395731597
    },
    {
        "id": 33,
        "created_at": "2019-11-24T19:38:00.059298",
        "symbol": "PLN",
        "last_update": "2019-11-22",
        "name": "Polish Zloty",
        "rate": 3.8865075059
    }
]